{
  "project_info": {
    "project_number": "230611152071",
    "firebase_url": "https://rkfmonitor.firebaseio.com",
    "project_id": "rkfmonitor",
    "storage_bucket": "rkfmonitor.appspot.com"
  },
  "client": [
    {
      "client_info": {
        "mobilesdk_app_id": "1:230611152071:android:87a2bbef8f71bf28",
        "android_client_info": {
          "package_name": "com.example.app"
        }
      },
      "oauth_client": [
        {
          "client_id": "230611152071-vs67o7mahu5upb82p129m3qinhckudjs.apps.googleusercontent.com",
          "client_type": 1,
          "android_info": {
            "package_name": "com.example.app",
            "certificate_hash": "b7c45bcc84eee6a6a0a05883d4498db222d5754d"
          }
        },
        {
          "client_id": "230611152071-0h0utpd8apo4gika3km94f5vt32dk2pc.apps.googleusercontent.com",
          "client_type": 3
        }
      ],
      "api_key": [
        {
          "current_key": "AIzaSyDiHi-Xs2GfO3qdpzCrF5nUadlbKV4dLkU"
        }
      ],
      "services": {
        "appinvite_service": {
          "other_platform_oauth_client": [
            {
              "client_id": "230611152071-0h0utpd8apo4gika3km94f5vt32dk2pc.apps.googleusercontent.com",
              "client_type": 3
            }
          ]
        }
      }
    }
  ],
  "configuration_version": "1"
}